type error: test/2/ann-Int-Str.ploy:1:8-8: type annotation actual type is not expected opaque type. actual type: Int
  main = 0:Str
         ~
note: test/2/ann-Int-Str.ploy:1:10-12: expected type: Str
  main = 0:Str
           ~~~
